{
  "name": "test",
  "description": "salut",
  "profile": "tabular-data-package",
  "resources": [
    {
      "path": "prenoms.csv"
    },
    {
      "path": "consumer.js"
    }
  ],
  "contributors": [
    {
      "title": "cbenz",
      "role": "author"
    }
  ]
}